{"data": {"paginationMeta": {"currentPage": 1, "currentPageSize": 10, "totalPages": 22, "totalRecords": 217}, "last_update": "Apr, 19 2020, 22:21, UTC", "rows": [{"country": "World", "country_abbreviation": "", "total_cases": "2,403,380", "new_cases": "72,614", "total_deaths": "165,658", "new_deaths": "5,611", "total_recovered": "616,553", "active_cases": "1,621,169", "serious_critical": "54,225", "cases_per_mill_pop": "308.0", "flag": "https://upload.wikimedia.org/wikipedia/commons/thumb/e/ef/International_Flag_of_Planet_Earth.svg/800px-International_Flag_of_Planet_Earth.svg.png"}, {"country": "USA", "country_abbreviation": "US", "total_cases": "762,896", "new_cases": "24,104", "total_deaths": "40,495", "new_deaths": "1,481", "total_recovered": "70,806", "active_cases": "651,595", "serious_critical": "13,566", "cases_per_mill_pop": "2,305.0", "flag": "https://www.worldometers.info/img/flags/us-flag.gif"}, {"country": "Spain", "country_abbreviation": "ES", "total_cases": "198,674", "new_cases": "4,258", "total_deaths": "21,238", "new_deaths": "1,195", "total_recovered": "77,357", "active_cases": "100,079", "serious_critical": "7,371", "cases_per_mill_pop": "4,249.0", "flag": "https://www.worldometers.info/img/flags/sp-flag.gif"}, {"country": "Italy", "country_abbreviation": "IT", "total_cases": "178,972", "new_cases": "3,047", "total_deaths": "23,660", "new_deaths": "433", "total_recovered": "47,055", "active_cases": "108,257", "serious_critical": "2,635", "cases_per_mill_pop": "2,960.0", "flag": "https://www.worldometers.info/img/flags/it-flag.gif"}, {"country": "France", "country_abbreviation": "FR", "total_cases": "152,894", "new_cases": "1,101", "total_deaths": "19,718", "new_deaths": "395", "total_recovered": "36,578", "active_cases": "96,598", "serious_critical": "5,744", "cases_per_mill_pop": "2,342.0", "flag": "https://www.worldometers.info/img/flags/fr-flag.gif"}, {"country": "Germany", "country_abbreviation": "DE", "total_cases": "145,184", "new_cases": "1,460", "total_deaths": "4,586", "new_deaths": "48", "total_recovered": "88,000", "active_cases": "52,598", "serious_critical": "2,889", "cases_per_mill_pop": "1,733.0", "flag": "https://www.worldometers.info/img/flags/gm-flag.gif"}, {"country": "UK", "country_abbreviation": "GB", "total_cases": "84,279", "new_cases": "0", "total_deaths": "10,612", "new_deaths": "0", "total_recovered": "344", "active_cases": "73,323", "serious_critical": "1,559", "cases_per_mill_pop": "1,241.0", "flag": "https://www.worldometers.info/img/flags/uk-flag.gif"}, {"country": "China", "country_abbreviation": "CN", "total_cases": "82,160", "new_cases": "108", "total_deaths": "3,341", "new_deaths": "2", "total_recovered": "77,663", "active_cases": "1,156", "serious_critical": "121", "cases_per_mill_pop": "57.0", "flag": "https://www.worldometers.info/img/flags/ch-flag.gif"}, {"country": "Iran", "country_abbreviation": "IR", "total_cases": "71,686", "new_cases": "0", "total_deaths": "4,474", "new_deaths": "0", "total_recovered": "43,894", "active_cases": "23,318", "serious_critical": "3,930", "cases_per_mill_pop": "853.0", "flag": "https://www.worldometers.info/img/flags/ir-flag.gif"}, {"country": "Turkey", "country_abbreviation": "TR", "total_cases": "56,956", "new_cases": "0", "total_deaths": "1,198", "new_deaths": "0", "total_recovered": "3,446", "active_cases": "52,312", "serious_critical": "1,665", "cases_per_mill_pop": "675.0", "flag": "https://www.worldometers.info/img/flags/tu-flag.gif"}]}, "status": "success"}